^C:\USERS\משתמש\SOURCE\REPOS\MAGSHIMIM_EX31\MAGSHIMIM_EX31\FILE2.C|C:\USERS\משתמש\SOURCE\REPOS\MAGSHIMIM_EX31\MAGSHIMIM_EX31\PROG.C|C:\USERS\משתמש\SOURCE\REPOS\MAGSHIMIM_EX31\MAGSHIMIM_EX31\VIEW.C
C:\USERS\משתמש\SOURCE\REPOS\MAGSHIMIM_EX31\MAGSHIMIM_EX31\RELEASE\VC141.PDB
C:\USERS\משתמש\SOURCE\REPOS\MAGSHIMIM_EX31\MAGSHIMIM_EX31\RELEASE\PROG.OBJ
C:\USERS\משתמש\SOURCE\REPOS\MAGSHIMIM_EX31\MAGSHIMIM_EX31\RELEASE\FILE2.OBJ
C:\USERS\משתמש\SOURCE\REPOS\MAGSHIMIM_EX31\MAGSHIMIM_EX31\RELEASE\VIEW.OBJ
^C:\USERS\משתמש\SOURCE\REPOS\MAGSHIMIM_EX31\MAGSHIMIM_EX31\PROG.C|C:\USERS\משתמש\SOURCE\REPOS\MAGSHIMIM_EX31\MAGSHIMIM_EX31\VIEW.C
C:\USERS\משתמש\SOURCE\REPOS\MAGSHIMIM_EX31\MAGSHIMIM_EX31\RELEASE\VC141.PDB
C:\USERS\משתמש\SOURCE\REPOS\MAGSHIMIM_EX31\MAGSHIMIM_EX31\RELEASE\PROG.OBJ
C:\USERS\משתמש\SOURCE\REPOS\MAGSHIMIM_EX31\MAGSHIMIM_EX31\RELEASE\VIEW.OBJ
^C:\USERS\משתמש\SOURCE\REPOS\MAGSHIMIM_EX31\MAGSHIMIM_EX31\PROG.C
C:\USERS\משתמש\SOURCE\REPOS\MAGSHIMIM_EX31\MAGSHIMIM_EX31\RELEASE\VC141.PDB
^C:\USERS\משתמש\SOURCE\REPOS\MAGSHIMIM_EX31\MAGSHIMIM_EX31\VIEW.C
C:\USERS\משתמש\SOURCE\REPOS\MAGSHIMIM_EX31\MAGSHIMIM_EX31\RELEASE\VC141.PDB
C:\USERS\משתמש\SOURCE\REPOS\MAGSHIMIM_EX31\MAGSHIMIM_EX31\RELEASE\VIEW.OBJ
^C:\USERS\משתמש\SOURCE\REPOS\MAGSHIMIM_FINALPROJECTOFEK\MAGSHIMIM_EX31\FILE2.C|C:\USERS\משתמש\SOURCE\REPOS\MAGSHIMIM_FINALPROJECTOFEK\MAGSHIMIM_EX31\PROG.C|C:\USERS\משתמש\SOURCE\REPOS\MAGSHIMIM_FINALPROJECTOFEK\MAGSHIMIM_EX31\VIEW.C
C:\USERS\משתמש\SOURCE\REPOS\MAGSHIMIM_FINALPROJECTOFEK\MAGSHIMIM_EX31\RELEASE\VC142.PDB
C:\USERS\משתמש\SOURCE\REPOS\MAGSHIMIM_FINALPROJECTOFEK\MAGSHIMIM_EX31\RELEASE\PROG.OBJ
C:\USERS\משתמש\SOURCE\REPOS\MAGSHIMIM_FINALPROJECTOFEK\MAGSHIMIM_EX31\RELEASE\FILE2.OBJ
C:\USERS\משתמש\SOURCE\REPOS\MAGSHIMIM_FINALPROJECTOFEK\MAGSHIMIM_EX31\RELEASE\VIEW.OBJ
^C:\USERS\משתמש\SOURCE\REPOS\MAGSHIMIM_FINALPROJECTOFEK\MAGSHIMIM_EX31\VIEW.C
C:\USERS\משתמש\SOURCE\REPOS\MAGSHIMIM_FINALPROJECTOFEK\MAGSHIMIM_EX31\RELEASE\VC142.PDB
^C:\USERS\משתמש\SOURCE\REPOS\MAGSHIMIM_FINALPROJECTOFEK\MAGSHIMIM_EX31\FILE2.C
C:\USERS\משתמש\SOURCE\REPOS\MAGSHIMIM_FINALPROJECTOFEK\MAGSHIMIM_EX31\RELEASE\VC142.PDB
^C:\USERS\משתמש\SOURCE\REPOS\MAGSHIMIM_FINALPROJECTOFEK\MAGSHIMIM_EX31\PROG.C
C:\USERS\משתמש\SOURCE\REPOS\MAGSHIMIM_FINALPROJECTOFEK\MAGSHIMIM_EX31\RELEASE\VC142.PDB
