^C:\Users\משתמש\source\repos\Magshimim_EX31\Magshimim_EX31\Magshimim_EX31.vcxproj
C:\Users\משתמש\source\repos\Magshimim_EX31\Release\Magshimim_EX31.ipdb
C:\Users\משתמש\source\repos\Magshimim_EX31\Release\Magshimim_EX31.iobj
^C:\Users\משתמש\source\repos\Magshimim_EX31\Magshimim_EX31\Magshimim_EX31.vcxproj
C:\Users\משתמש\source\repos\Magshimim_EX31\Release\Magshimim_EX31.ipdb
C:\Users\משתמש\source\repos\Magshimim_EX31\Release\Magshimim_EX31.iobj
^C:\Users\משתמש\source\repos\Magshimim_EX31\Magshimim_EX31\Magshimim_EX31.vcxproj
C:\Users\משתמש\source\repos\Magshimim_EX31\Release\Magshimim_EX31.ipdb
C:\Users\משתמש\source\repos\Magshimim_EX31\Release\Magshimim_EX31.iobj
^C:\Users\משתמש\source\repos\Magshimim_EX31\Magshimim_EX31\Magshimim_EX31.vcxproj
C:\Users\משתמש\source\repos\Magshimim_EX31\Release\Magshimim_EX31.ipdb
C:\Users\משתמש\source\repos\Magshimim_EX31\Release\Magshimim_EX31.iobj
^C:\Users\משתמש\source\repos\Magshimim_EX31\Magshimim_EX31\Magshimim_EX31.vcxproj
C:\Users\משתמש\source\repos\Magshimim_EX31\Release\Magshimim_EX31.ipdb
C:\Users\משתמש\source\repos\Magshimim_EX31\Release\Magshimim_EX31.iobj
^C:\Users\משתמש\source\repos\Magshimim_EX31\Magshimim_EX31\Magshimim_EX31.vcxproj
C:\Users\משתמש\source\repos\Magshimim_EX31\Release\Magshimim_EX31.ipdb
C:\Users\משתמש\source\repos\Magshimim_EX31\Release\Magshimim_EX31.iobj
^C:\Users\משתמש\source\repos\Magshimim_EX31\Magshimim_EX31\Magshimim_EX31.vcxproj
C:\Users\משתמש\source\repos\Magshimim_EX31\Release\Magshimim_EX31.ipdb
C:\Users\משתמש\source\repos\Magshimim_EX31\Release\Magshimim_EX31.iobj
^C:\Users\משתמש\source\repos\Magshimim_EX31\Magshimim_EX31\Magshimim_EX31.vcxproj
C:\Users\משתמש\source\repos\Magshimim_EX31\Release\Magshimim_EX31.ipdb
C:\Users\משתמש\source\repos\Magshimim_EX31\Release\Magshimim_EX31.iobj
^C:\Users\משתמש\source\repos\Magshimim_EX31\Magshimim_EX31\Magshimim_EX31.vcxproj
C:\Users\משתמש\source\repos\Magshimim_EX31\Release\Magshimim_EX31.ipdb
C:\Users\משתמש\source\repos\Magshimim_EX31\Release\Magshimim_EX31.iobj
^C:\Users\משתמש\source\repos\Magshimim_EX31\Magshimim_EX31\Magshimim_EX31.vcxproj
C:\Users\משתמש\source\repos\Magshimim_EX31\Release\Magshimim_EX31.ipdb
C:\Users\משתמש\source\repos\Magshimim_EX31\Release\Magshimim_EX31.iobj
^C:\Users\משתמש\source\repos\Magshimim_EX31\Magshimim_EX31\Magshimim_EX31.vcxproj
C:\Users\משתמש\source\repos\Magshimim_EX31\Release\Magshimim_EX31.ipdb
C:\Users\משתמש\source\repos\Magshimim_EX31\Release\Magshimim_EX31.iobj
^C:\Users\משתמש\source\repos\Magshimim_EX31\Magshimim_EX31\Magshimim_EX31.vcxproj
C:\Users\משתמש\source\repos\Magshimim_EX31\Release\Magshimim_EX31.ipdb
C:\Users\משתמש\source\repos\Magshimim_EX31\Release\Magshimim_EX31.iobj
^C:\Users\משתמש\source\repos\Magshimim_EX31\Magshimim_EX31\Magshimim_EX31.vcxproj
C:\Users\משתמש\source\repos\Magshimim_EX31\Release\Magshimim_EX31.ipdb
C:\Users\משתמש\source\repos\Magshimim_EX31\Release\Magshimim_EX31.iobj
^C:\Users\משתמש\source\repos\Magshimim_EX31\Magshimim_EX31\Magshimim_EX31.vcxproj
C:\Users\משתמש\source\repos\Magshimim_EX31\Release\Magshimim_EX31.ipdb
C:\Users\משתמש\source\repos\Magshimim_EX31\Release\Magshimim_EX31.iobj
^C:\Users\משתמש\source\repos\Magshimim_EX31\Magshimim_EX31\Magshimim_EX31.vcxproj
C:\Users\משתמש\source\repos\Magshimim_EX31\Release\Magshimim_EX31.ipdb
C:\Users\משתמש\source\repos\Magshimim_EX31\Release\Magshimim_EX31.iobj
^C:\Users\משתמש\source\repos\Magshimim_EX31\Magshimim_EX31\Magshimim_EX31.vcxproj
C:\Users\משתמש\source\repos\Magshimim_EX31\Release\Magshimim_EX31.ipdb
C:\Users\משתמש\source\repos\Magshimim_EX31\Release\Magshimim_EX31.iobj
^C:\Users\משתמש\source\repos\Magshimim_EX31\Magshimim_EX31\Magshimim_EX31.vcxproj
C:\Users\משתמש\source\repos\Magshimim_EX31\Release\Magshimim_EX31.ipdb
C:\Users\משתמש\source\repos\Magshimim_EX31\Release\Magshimim_EX31.iobj
^C:\Users\משתמש\source\repos\Magshimim_EX31\Magshimim_EX31\Magshimim_EX31.vcxproj
C:\Users\משתמש\source\repos\Magshimim_EX31\Release\Magshimim_EX31.ipdb
C:\Users\משתמש\source\repos\Magshimim_EX31\Release\Magshimim_EX31.iobj
^C:\Users\משתמש\source\repos\Magshimim_EX31\Magshimim_EX31\Magshimim_EX31.vcxproj
C:\Users\משתמש\source\repos\Magshimim_EX31\Release\Magshimim_EX31.ipdb
C:\Users\משתמש\source\repos\Magshimim_EX31\Release\Magshimim_EX31.iobj
^C:\Users\משתמש\source\repos\Magshimim_EX31\Magshimim_EX31\Magshimim_EX31.vcxproj
C:\Users\משתמש\source\repos\Magshimim_EX31\Release\Magshimim_EX31.ipdb
C:\Users\משתמש\source\repos\Magshimim_EX31\Release\Magshimim_EX31.iobj
^C:\Users\משתמש\source\repos\Magshimim_EX31\Magshimim_EX31\Magshimim_EX31.vcxproj
C:\Users\משתמש\source\repos\Magshimim_EX31\Release\Magshimim_EX31.ipdb
C:\Users\משתמש\source\repos\Magshimim_EX31\Release\Magshimim_EX31.iobj
^C:\Users\משתמש\source\repos\Magshimim_EX31\Magshimim_EX31\Magshimim_EX31.vcxproj
C:\Users\משתמש\source\repos\Magshimim_EX31\Release\Magshimim_EX31.ipdb
C:\Users\משתמש\source\repos\Magshimim_EX31\Release\Magshimim_EX31.iobj
^C:\Users\משתמש\source\repos\Magshimim_EX31\Magshimim_EX31\Magshimim_EX31.vcxproj
C:\Users\משתמש\source\repos\Magshimim_EX31\Release\Magshimim_EX31.ipdb
C:\Users\משתמש\source\repos\Magshimim_EX31\Release\Magshimim_EX31.iobj
^C:\Users\משתמש\source\repos\Magshimim_EX31\Magshimim_EX31\Magshimim_EX31.vcxproj
C:\Users\משתמש\source\repos\Magshimim_EX31\Release\Magshimim_EX31.ipdb
C:\Users\משתמש\source\repos\Magshimim_EX31\Release\Magshimim_EX31.iobj
^C:\Users\משתמש\source\repos\Magshimim_EX31\Magshimim_EX31\Magshimim_EX31.vcxproj
C:\Users\משתמש\source\repos\Magshimim_EX31\Release\Magshimim_EX31.ipdb
C:\Users\משתמש\source\repos\Magshimim_EX31\Release\Magshimim_EX31.iobj
^C:\Users\משתמש\source\repos\Magshimim_EX31\Magshimim_EX31\Magshimim_EX31.vcxproj
C:\Users\משתמש\source\repos\Magshimim_EX31\Release\Magshimim_EX31.ipdb
C:\Users\משתמש\source\repos\Magshimim_EX31\Release\Magshimim_EX31.iobj
^C:\Users\משתמש\source\repos\Magshimim_EX31\Magshimim_EX31\Magshimim_EX31.vcxproj
C:\Users\משתמש\source\repos\Magshimim_EX31\Release\Magshimim_EX31.ipdb
C:\Users\משתמש\source\repos\Magshimim_EX31\Release\Magshimim_EX31.iobj
^C:\Users\משתמש\source\repos\Magshimim_EX31\Magshimim_EX31\Magshimim_EX31.vcxproj
C:\Users\משתמש\source\repos\Magshimim_EX31\Release\Magshimim_EX31.ipdb
C:\Users\משתמש\source\repos\Magshimim_EX31\Release\Magshimim_EX31.iobj
^C:\Users\משתמש\source\repos\Magshimim_EX31\Magshimim_EX31\Magshimim_EX31.vcxproj
C:\Users\משתמש\source\repos\Magshimim_EX31\Release\Magshimim_EX31.ipdb
C:\Users\משתמש\source\repos\Magshimim_EX31\Release\Magshimim_EX31.iobj
^C:\Users\משתמש\source\repos\Magshimim_EX31\Magshimim_EX31\Magshimim_EX31.vcxproj
C:\Users\משתמש\source\repos\Magshimim_EX31\Release\Magshimim_EX31.ipdb
C:\Users\משתמש\source\repos\Magshimim_EX31\Release\Magshimim_EX31.iobj
^C:\Users\משתמש\source\repos\Magshimim_EX31\Magshimim_EX31\Magshimim_EX31.vcxproj
C:\Users\משתמש\source\repos\Magshimim_EX31\Release\Magshimim_EX31.ipdb
C:\Users\משתמש\source\repos\Magshimim_EX31\Release\Magshimim_EX31.iobj
^C:\Users\משתמש\source\repos\Magshimim_EX31\Magshimim_EX31\Magshimim_EX31.vcxproj
C:\Users\משתמש\source\repos\Magshimim_EX31\Release\Magshimim_EX31.ipdb
C:\Users\משתמש\source\repos\Magshimim_EX31\Release\Magshimim_EX31.iobj
^C:\Users\משתמש\source\repos\Magshimim_EX31\Magshimim_EX31\Magshimim_EX31.vcxproj
C:\Users\משתמש\source\repos\Magshimim_EX31\Release\Magshimim_EX31.ipdb
C:\Users\משתמש\source\repos\Magshimim_EX31\Release\Magshimim_EX31.iobj
^C:\Users\משתמש\source\repos\Magshimim_EX31\Magshimim_EX31\Magshimim_EX31.vcxproj
C:\Users\משתמש\source\repos\Magshimim_EX31\Release\Magshimim_EX31.ipdb
C:\Users\משתמש\source\repos\Magshimim_EX31\Release\Magshimim_EX31.iobj
^C:\Users\משתמש\source\repos\Magshimim_EX31\Magshimim_EX31\Magshimim_EX31.vcxproj
C:\Users\משתמש\source\repos\Magshimim_EX31\Release\Magshimim_EX31.ipdb
C:\Users\משתמש\source\repos\Magshimim_EX31\Release\Magshimim_EX31.iobj
^C:\Users\משתמש\source\repos\Magshimim_EX31\Magshimim_EX31\Magshimim_EX31.vcxproj
C:\Users\משתמש\source\repos\Magshimim_EX31\Release\Magshimim_EX31.ipdb
C:\Users\משתמש\source\repos\Magshimim_EX31\Release\Magshimim_EX31.iobj
^C:\Users\משתמש\source\repos\Magshimim_EX31\Magshimim_EX31\Magshimim_EX31.vcxproj
C:\Users\משתמש\source\repos\Magshimim_EX31\Release\Magshimim_EX31.ipdb
C:\Users\משתמש\source\repos\Magshimim_EX31\Release\Magshimim_EX31.iobj
^C:\Users\משתמש\source\repos\Magshimim_EX31\Magshimim_EX31\Magshimim_EX31.vcxproj
C:\Users\משתמש\source\repos\Magshimim_EX31\Release\Magshimim_EX31.ipdb
C:\Users\משתמש\source\repos\Magshimim_EX31\Release\Magshimim_EX31.iobj
^C:\Users\משתמש\source\repos\Magshimim_EX31\Magshimim_EX31\Magshimim_EX31.vcxproj
C:\Users\משתמש\source\repos\Magshimim_EX31\Release\Magshimim_EX31.ipdb
C:\Users\משתמש\source\repos\Magshimim_EX31\Release\Magshimim_EX31.iobj
^C:\Users\משתמש\source\repos\Magshimim_EX31\Magshimim_EX31\Magshimim_EX31.vcxproj
C:\Users\משתמש\source\repos\Magshimim_EX31\Release\Magshimim_EX31.ipdb
C:\Users\משתמש\source\repos\Magshimim_EX31\Release\Magshimim_EX31.iobj
^C:\Users\משתמש\source\repos\Magshimim_EX31\Magshimim_EX31\Magshimim_EX31.vcxproj
C:\Users\משתמש\source\repos\Magshimim_EX31\Release\Magshimim_EX31.ipdb
C:\Users\משתמש\source\repos\Magshimim_EX31\Release\Magshimim_EX31.iobj
^C:\Users\משתמש\source\repos\Magshimim_EX31\Magshimim_EX31\Magshimim_EX31.vcxproj
C:\Users\משתמש\source\repos\Magshimim_EX31\Release\Magshimim_EX31.ipdb
C:\Users\משתמש\source\repos\Magshimim_EX31\Release\Magshimim_EX31.iobj
^C:\Users\משתמש\source\repos\Magshimim_EX31\Magshimim_EX31\Magshimim_EX31.vcxproj
C:\Users\משתמש\source\repos\Magshimim_EX31\Release\Magshimim_EX31.ipdb
C:\Users\משתמש\source\repos\Magshimim_EX31\Release\Magshimim_EX31.iobj
^C:\Users\משתמש\source\repos\Magshimim_EX31\Magshimim_EX31\Magshimim_EX31.vcxproj
C:\Users\משתמש\source\repos\Magshimim_EX31\Release\Magshimim_EX31.ipdb
C:\Users\משתמש\source\repos\Magshimim_EX31\Release\Magshimim_EX31.iobj
^C:\Users\משתמש\source\repos\Magshimim_EX31\Magshimim_EX31\Magshimim_EX31.vcxproj
C:\Users\משתמש\source\repos\Magshimim_EX31\Release\Magshimim_EX31.ipdb
C:\Users\משתמש\source\repos\Magshimim_EX31\Release\Magshimim_EX31.iobj
^C:\Users\משתמש\source\repos\Magshimim_EX31\Magshimim_EX31\Magshimim_EX31.vcxproj
C:\Users\משתמש\source\repos\Magshimim_EX31\Release\Magshimim_EX31.ipdb
C:\Users\משתמש\source\repos\Magshimim_EX31\Release\Magshimim_EX31.iobj
^C:\Users\משתמש\source\repos\Magshimim_EX31\Magshimim_EX31\Magshimim_EX31.vcxproj
C:\Users\משתמש\source\repos\Magshimim_EX31\Release\Magshimim_EX31.ipdb
C:\Users\משתמש\source\repos\Magshimim_EX31\Release\Magshimim_EX31.iobj
^C:\Users\משתמש\source\repos\Magshimim_EX31\Magshimim_EX31\Magshimim_EX31.vcxproj
C:\Users\משתמש\source\repos\Magshimim_EX31\Release\Magshimim_EX31.ipdb
C:\Users\משתמש\source\repos\Magshimim_EX31\Release\Magshimim_EX31.iobj
^C:\Users\משתמש\source\repos\Magshimim_EX31\Magshimim_EX31\Magshimim_EX31.vcxproj
C:\Users\משתמש\source\repos\Magshimim_EX31\Release\Magshimim_EX31.ipdb
C:\Users\משתמש\source\repos\Magshimim_EX31\Release\Magshimim_EX31.iobj
^C:\Users\משתמש\source\repos\Magshimim_EX31\Magshimim_EX31\Magshimim_EX31.vcxproj
C:\Users\משתמש\source\repos\Magshimim_EX31\Release\Magshimim_EX31.ipdb
C:\Users\משתמש\source\repos\Magshimim_EX31\Release\Magshimim_EX31.iobj
^C:\Users\משתמש\source\repos\Magshimim_EX31\Magshimim_EX31\Magshimim_EX31.vcxproj
C:\Users\משתמש\source\repos\Magshimim_EX31\Release\Magshimim_EX31.ipdb
C:\Users\משתמש\source\repos\Magshimim_EX31\Release\Magshimim_EX31.iobj
^C:\Users\משתמש\source\repos\Magshimim_EX31\Magshimim_EX31\Magshimim_EX31.vcxproj
C:\Users\משתמש\source\repos\Magshimim_EX31\Release\Magshimim_EX31.ipdb
C:\Users\משתמש\source\repos\Magshimim_EX31\Release\Magshimim_EX31.iobj
^C:\Users\משתמש\source\repos\Magshimim_EX31\Magshimim_EX31\Magshimim_EX31.vcxproj
C:\Users\משתמש\source\repos\Magshimim_EX31\Release\Magshimim_EX31.ipdb
C:\Users\משתמש\source\repos\Magshimim_EX31\Release\Magshimim_EX31.iobj
^C:\Users\משתמש\source\repos\Magshimim_EX31\Magshimim_EX31\Magshimim_EX31.vcxproj
C:\Users\משתמש\source\repos\Magshimim_EX31\Release\Magshimim_EX31.ipdb
C:\Users\משתמש\source\repos\Magshimim_EX31\Release\Magshimim_EX31.iobj
^C:\Users\משתמש\source\repos\Magshimim_EX31\Magshimim_EX31\Magshimim_EX31.vcxproj
C:\Users\משתמש\source\repos\Magshimim_EX31\Release\Magshimim_EX31.ipdb
C:\Users\משתמש\source\repos\Magshimim_EX31\Release\Magshimim_EX31.iobj
^C:\Users\משתמש\source\repos\Magshimim_EX31\Magshimim_EX31\Magshimim_EX31.vcxproj
C:\Users\משתמש\source\repos\Magshimim_EX31\Release\Magshimim_EX31.ipdb
C:\Users\משתמש\source\repos\Magshimim_EX31\Release\Magshimim_EX31.iobj
^C:\Users\משתמש\source\repos\Magshimim_EX31\Magshimim_EX31\Magshimim_EX31.vcxproj
C:\Users\משתמש\source\repos\Magshimim_EX31\Release\Magshimim_EX31.ipdb
C:\Users\משתמש\source\repos\Magshimim_EX31\Release\Magshimim_EX31.iobj
^C:\Users\משתמש\source\repos\Magshimim_EX31\Magshimim_EX31\Magshimim_EX31.vcxproj
C:\Users\משתמש\source\repos\Magshimim_EX31\Release\Magshimim_EX31.ipdb
C:\Users\משתמש\source\repos\Magshimim_EX31\Release\Magshimim_EX31.iobj
^C:\Users\משתמש\source\repos\Magshimim_EX31\Magshimim_EX31\Magshimim_EX31.vcxproj
C:\Users\משתמש\source\repos\Magshimim_EX31\Release\Magshimim_EX31.ipdb
C:\Users\משתמש\source\repos\Magshimim_EX31\Release\Magshimim_EX31.iobj
^C:\Users\משתמש\source\repos\Magshimim_EX31\Magshimim_EX31\Magshimim_EX31.vcxproj
C:\Users\משתמש\source\repos\Magshimim_EX31\Release\Magshimim_EX31.ipdb
C:\Users\משתמש\source\repos\Magshimim_EX31\Release\Magshimim_EX31.iobj
^C:\Users\משתמש\source\repos\Magshimim_EX31\Magshimim_EX31\Magshimim_EX31.vcxproj
C:\Users\משתמש\source\repos\Magshimim_EX31\Release\Magshimim_EX31.ipdb
C:\Users\משתמש\source\repos\Magshimim_EX31\Release\Magshimim_EX31.iobj
^C:\Users\משתמש\source\repos\Magshimim_EX31\Magshimim_EX31\Magshimim_EX31.vcxproj
C:\Users\משתמש\source\repos\Magshimim_EX31\Release\Magshimim_EX31.ipdb
C:\Users\משתמש\source\repos\Magshimim_EX31\Release\Magshimim_EX31.iobj
^C:\Users\משתמש\source\repos\Magshimim_EX31\Magshimim_EX31\Magshimim_EX31.vcxproj
C:\Users\משתמש\source\repos\Magshimim_EX31\Release\Magshimim_EX31.ipdb
C:\Users\משתמש\source\repos\Magshimim_EX31\Release\Magshimim_EX31.iobj
^C:\Users\משתמש\source\repos\Magshimim_EX31\Magshimim_EX31\Magshimim_EX31.vcxproj
C:\Users\משתמש\source\repos\Magshimim_EX31\Release\Magshimim_EX31.ipdb
C:\Users\משתמש\source\repos\Magshimim_EX31\Release\Magshimim_EX31.iobj
^C:\Users\משתמש\source\repos\Magshimim_EX31\Magshimim_EX31\Magshimim_EX31.vcxproj
C:\Users\משתמש\source\repos\Magshimim_EX31\Release\Magshimim_EX31.ipdb
C:\Users\משתמש\source\repos\Magshimim_EX31\Release\Magshimim_EX31.iobj
^C:\Users\משתמש\source\repos\Magshimim_EX31\Magshimim_EX31\Magshimim_EX31.vcxproj
C:\Users\משתמש\source\repos\Magshimim_EX31\Release\Magshimim_EX31.ipdb
C:\Users\משתמש\source\repos\Magshimim_EX31\Release\Magshimim_EX31.iobj
^C:\Users\משתמש\source\repos\Magshimim_EX31\Magshimim_EX31\Magshimim_EX31.vcxproj
C:\Users\משתמש\source\repos\Magshimim_EX31\Release\Magshimim_EX31.ipdb
C:\Users\משתמש\source\repos\Magshimim_EX31\Release\Magshimim_EX31.iobj
^C:\Users\משתמש\source\repos\Magshimim_EX31\Magshimim_EX31\Magshimim_EX31.vcxproj
C:\Users\משתמש\source\repos\Magshimim_EX31\Release\Magshimim_EX31.ipdb
C:\Users\משתמש\source\repos\Magshimim_EX31\Release\Magshimim_EX31.iobj
^C:\Users\משתמש\source\repos\Magshimim_EX31\Magshimim_EX31\Magshimim_EX31.vcxproj
C:\Users\משתמש\source\repos\Magshimim_EX31\Release\Magshimim_EX31.ipdb
C:\Users\משתמש\source\repos\Magshimim_EX31\Release\Magshimim_EX31.iobj
^C:\Users\משתמש\source\repos\Magshimim_EX31\Magshimim_EX31\Magshimim_EX31.vcxproj
C:\Users\משתמש\source\repos\Magshimim_EX31\Release\Magshimim_EX31.ipdb
C:\Users\משתמש\source\repos\Magshimim_EX31\Release\Magshimim_EX31.iobj
^C:\Users\משתמש\source\repos\Magshimim_EX31\Magshimim_EX31\Magshimim_EX31.vcxproj
C:\Users\משתמש\source\repos\Magshimim_EX31\Release\Magshimim_EX31.ipdb
C:\Users\משתמש\source\repos\Magshimim_EX31\Release\Magshimim_EX31.iobj
^C:\Users\משתמש\source\repos\Magshimim_EX31\Magshimim_EX31\Magshimim_EX31.vcxproj
C:\Users\משתמש\source\repos\Magshimim_EX31\Release\Magshimim_EX31.ipdb
C:\Users\משתמש\source\repos\Magshimim_EX31\Release\Magshimim_EX31.iobj
^C:\Users\משתמש\source\repos\Magshimim_EX31\Magshimim_EX31\Magshimim_EX31.vcxproj
C:\Users\משתמש\source\repos\Magshimim_EX31\Release\Magshimim_EX31.ipdb
C:\Users\משתמש\source\repos\Magshimim_EX31\Release\Magshimim_EX31.iobj
^C:\Users\משתמש\source\repos\Magshimim_EX31\Magshimim_EX31\Magshimim_EX31.vcxproj
C:\Users\משתמש\source\repos\Magshimim_EX31\Release\Magshimim_EX31.ipdb
C:\Users\משתמש\source\repos\Magshimim_EX31\Release\Magshimim_EX31.iobj
^C:\Users\משתמש\source\repos\Magshimim_EX31\Magshimim_EX31\Magshimim_EX31.vcxproj
C:\Users\משתמש\source\repos\Magshimim_EX31\Release\Magshimim_EX31.ipdb
C:\Users\משתמש\source\repos\Magshimim_EX31\Release\Magshimim_EX31.iobj
^C:\Users\משתמש\source\repos\Magshimim_EX31\Magshimim_EX31\Magshimim_EX31.vcxproj
C:\Users\משתמש\source\repos\Magshimim_EX31\Release\Magshimim_EX31.ipdb
C:\Users\משתמש\source\repos\Magshimim_EX31\Release\Magshimim_EX31.iobj
^C:\Users\משתמש\source\repos\Magshimim_EX31\Magshimim_EX31\Magshimim_EX31.vcxproj
C:\Users\משתמש\source\repos\Magshimim_EX31\Release\Magshimim_EX31.ipdb
C:\Users\משתמש\source\repos\Magshimim_EX31\Release\Magshimim_EX31.iobj
^C:\Users\משתמש\source\repos\Magshimim_EX31\Magshimim_EX31\Magshimim_EX31.vcxproj
C:\Users\משתמש\source\repos\Magshimim_EX31\Release\Magshimim_EX31.ipdb
C:\Users\משתמש\source\repos\Magshimim_EX31\Release\Magshimim_EX31.iobj
^C:\Users\משתמש\source\repos\Magshimim_EX31\Magshimim_EX31\Magshimim_EX31.vcxproj
C:\Users\משתמש\source\repos\Magshimim_EX31\Release\Magshimim_EX31.ipdb
C:\Users\משתמש\source\repos\Magshimim_EX31\Release\Magshimim_EX31.iobj
^C:\Users\משתמש\source\repos\Magshimim_EX31\Magshimim_EX31\Magshimim_EX31.vcxproj
C:\Users\משתמש\source\repos\Magshimim_EX31\Release\Magshimim_EX31.ipdb
C:\Users\משתמש\source\repos\Magshimim_EX31\Release\Magshimim_EX31.iobj
^C:\Users\משתמש\source\repos\Magshimim_EX31\Magshimim_EX31\Magshimim_EX31.vcxproj
C:\Users\משתמש\source\repos\Magshimim_EX31\Release\Magshimim_EX31.ipdb
C:\Users\משתמש\source\repos\Magshimim_EX31\Release\Magshimim_EX31.iobj
^C:\Users\משתמש\source\repos\Magshimim_EX31\Magshimim_EX31\Magshimim_EX31.vcxproj
C:\Users\משתמש\source\repos\Magshimim_EX31\Release\Magshimim_EX31.ipdb
C:\Users\משתמש\source\repos\Magshimim_EX31\Release\Magshimim_EX31.iobj
^C:\Users\משתמש\source\repos\Magshimim_EX31\Magshimim_EX31\Magshimim_EX31.vcxproj
C:\Users\משתמש\source\repos\Magshimim_EX31\Release\Magshimim_EX31.ipdb
C:\Users\משתמש\source\repos\Magshimim_EX31\Release\Magshimim_EX31.iobj
^C:\Users\משתמש\source\repos\Magshimim_EX31\Magshimim_EX31\Magshimim_EX31.vcxproj
C:\Users\משתמש\source\repos\Magshimim_EX31\Release\Magshimim_EX31.ipdb
C:\Users\משתמש\source\repos\Magshimim_EX31\Release\Magshimim_EX31.iobj
^C:\Users\משתמש\source\repos\Magshimim_EX31\Magshimim_EX31\Magshimim_EX31.vcxproj
C:\Users\משתמש\source\repos\Magshimim_EX31\Release\Magshimim_EX31.ipdb
C:\Users\משתמש\source\repos\Magshimim_EX31\Release\Magshimim_EX31.iobj
^C:\Users\משתמש\source\repos\Magshimim_EX31\Magshimim_EX31\Magshimim_EX31.vcxproj
C:\Users\משתמש\source\repos\Magshimim_EX31\Release\Magshimim_EX31.ipdb
C:\Users\משתמש\source\repos\Magshimim_EX31\Release\Magshimim_EX31.iobj
^C:\Users\משתמש\source\repos\Magshimim_EX31\Magshimim_EX31\Magshimim_EX31.vcxproj
C:\Users\משתמש\source\repos\Magshimim_EX31\Release\Magshimim_EX31.ipdb
C:\Users\משתמש\source\repos\Magshimim_EX31\Release\Magshimim_EX31.iobj
^C:\Users\משתמש\source\repos\Magshimim_EX31\Magshimim_EX31\Magshimim_EX31.vcxproj
C:\Users\משתמש\source\repos\Magshimim_EX31\Release\Magshimim_EX31.ipdb
C:\Users\משתמש\source\repos\Magshimim_EX31\Release\Magshimim_EX31.iobj
^C:\Users\משתמש\source\repos\Magshimim_EX31\Magshimim_EX31\Magshimim_EX31.vcxproj
C:\Users\משתמש\source\repos\Magshimim_EX31\Release\Magshimim_EX31.ipdb
C:\Users\משתמש\source\repos\Magshimim_EX31\Release\Magshimim_EX31.iobj
^C:\Users\משתמש\source\repos\Magshimim_EX31\Magshimim_EX31\Magshimim_EX31.vcxproj
C:\Users\משתמש\source\repos\Magshimim_EX31\Release\Magshimim_EX31.ipdb
C:\Users\משתמש\source\repos\Magshimim_EX31\Release\Magshimim_EX31.iobj
^C:\Users\משתמש\source\repos\Magshimim_EX31\Magshimim_EX31\Magshimim_EX31.vcxproj
C:\Users\משתמש\source\repos\Magshimim_EX31\Release\Magshimim_EX31.ipdb
C:\Users\משתמש\source\repos\Magshimim_EX31\Release\Magshimim_EX31.iobj
^C:\Users\משתמש\source\repos\Magshimim_EX31\Magshimim_EX31\Magshimim_EX31.vcxproj
C:\Users\משתמש\source\repos\Magshimim_EX31\Release\Magshimim_EX31.ipdb
C:\Users\משתמש\source\repos\Magshimim_EX31\Release\Magshimim_EX31.iobj
^C:\Users\משתמש\source\repos\Magshimim_EX31\Magshimim_EX31\Magshimim_EX31.vcxproj
C:\Users\משתמש\source\repos\Magshimim_EX31\Release\Magshimim_EX31.ipdb
C:\Users\משתמש\source\repos\Magshimim_EX31\Release\Magshimim_EX31.iobj
^C:\Users\משתמש\source\repos\Magshimim_EX31\Magshimim_EX31\Magshimim_EX31.vcxproj
C:\Users\משתמש\source\repos\Magshimim_EX31\Release\Magshimim_EX31.ipdb
C:\Users\משתמש\source\repos\Magshimim_EX31\Release\Magshimim_EX31.iobj
^C:\Users\משתמש\source\repos\Magshimim_EX31\Magshimim_EX31\Magshimim_EX31.vcxproj
C:\Users\משתמש\source\repos\Magshimim_EX31\Release\Magshimim_EX31.ipdb
C:\Users\משתמש\source\repos\Magshimim_EX31\Release\Magshimim_EX31.iobj
^C:\Users\משתמש\source\repos\Magshimim_EX31\Magshimim_EX31\Magshimim_EX31.vcxproj
C:\Users\משתמש\source\repos\Magshimim_EX31\Release\Magshimim_EX31.ipdb
C:\Users\משתמש\source\repos\Magshimim_EX31\Release\Magshimim_EX31.iobj
^C:\Users\משתמש\source\repos\Magshimim_EX31\Magshimim_EX31\Magshimim_EX31.vcxproj
C:\Users\משתמש\source\repos\Magshimim_EX31\Release\Magshimim_EX31.ipdb
C:\Users\משתמש\source\repos\Magshimim_EX31\Release\Magshimim_EX31.iobj
^C:\Users\משתמש\source\repos\Magshimim_EX31\Magshimim_EX31\Magshimim_EX31.vcxproj
C:\Users\משתמש\source\repos\Magshimim_EX31\Release\Magshimim_EX31.ipdb
C:\Users\משתמש\source\repos\Magshimim_EX31\Release\Magshimim_EX31.iobj
^C:\Users\משתמש\source\repos\Magshimim_EX31\Magshimim_EX31\Magshimim_EX31.vcxproj
C:\Users\משתמש\source\repos\Magshimim_EX31\Release\Magshimim_EX31.ipdb
C:\Users\משתמש\source\repos\Magshimim_EX31\Release\Magshimim_EX31.iobj
^C:\Users\משתמש\source\repos\Magshimim_EX31\Magshimim_EX31\Magshimim_EX31.vcxproj
C:\Users\משתמש\source\repos\Magshimim_EX31\Release\Magshimim_EX31.ipdb
C:\Users\משתמש\source\repos\Magshimim_EX31\Release\Magshimim_EX31.iobj
^C:\Users\משתמש\source\repos\Magshimim_EX31\Magshimim_EX31\Magshimim_EX31.vcxproj
C:\Users\משתמש\source\repos\Magshimim_EX31\Release\Magshimim_EX31.ipdb
C:\Users\משתמש\source\repos\Magshimim_EX31\Release\Magshimim_EX31.iobj
^C:\Users\משתמש\source\repos\Magshimim_EX31\Magshimim_EX31\Magshimim_EX31.vcxproj
C:\Users\משתמש\source\repos\Magshimim_EX31\Release\Magshimim_EX31.ipdb
C:\Users\משתמש\source\repos\Magshimim_EX31\Release\Magshimim_EX31.iobj
^C:\Users\משתמש\source\repos\Magshimim_EX31\Magshimim_EX31\Magshimim_EX31.vcxproj
C:\Users\משתמש\source\repos\Magshimim_EX31\Release\Magshimim_EX31.ipdb
C:\Users\משתמש\source\repos\Magshimim_EX31\Release\Magshimim_EX31.iobj
^C:\Users\משתמש\source\repos\Magshimim_EX31\Magshimim_EX31\Magshimim_EX31.vcxproj
C:\Users\משתמש\source\repos\Magshimim_EX31\Release\Magshimim_EX31.ipdb
C:\Users\משתמש\source\repos\Magshimim_EX31\Release\Magshimim_EX31.iobj
^C:\Users\משתמש\source\repos\Magshimim_EX31\Magshimim_EX31\Magshimim_EX31.vcxproj
C:\Users\משתמש\source\repos\Magshimim_EX31\Release\Magshimim_EX31.ipdb
C:\Users\משתמש\source\repos\Magshimim_EX31\Release\Magshimim_EX31.iobj
^C:\Users\משתמש\source\repos\Magshimim_EX31\Magshimim_EX31\Magshimim_EX31.vcxproj
C:\Users\משתמש\source\repos\Magshimim_EX31\Release\Magshimim_EX31.ipdb
C:\Users\משתמש\source\repos\Magshimim_EX31\Release\Magshimim_EX31.iobj
^C:\Users\משתמש\source\repos\Magshimim_EX31\Magshimim_EX31\Magshimim_EX31.vcxproj
C:\Users\משתמש\source\repos\Magshimim_EX31\Release\Magshimim_EX31.ipdb
C:\Users\משתמש\source\repos\Magshimim_EX31\Release\Magshimim_EX31.iobj
^C:\Users\משתמש\source\repos\Magshimim_EX31\Magshimim_EX31\Magshimim_EX31.vcxproj
C:\Users\משתמש\source\repos\Magshimim_EX31\Release\Magshimim_EX31.ipdb
C:\Users\משתמש\source\repos\Magshimim_EX31\Release\Magshimim_EX31.iobj
^C:\Users\משתמש\source\repos\Magshimim_EX31\Magshimim_EX31\Magshimim_EX31.vcxproj
C:\Users\משתמש\source\repos\Magshimim_EX31\Release\Magshimim_EX31.ipdb
C:\Users\משתמש\source\repos\Magshimim_EX31\Release\Magshimim_EX31.iobj
^C:\Users\משתמש\source\repos\Magshimim_EX31\Magshimim_EX31\Magshimim_EX31.vcxproj
C:\Users\משתמש\source\repos\Magshimim_EX31\Release\Magshimim_EX31.ipdb
C:\Users\משתמש\source\repos\Magshimim_EX31\Release\Magshimim_EX31.iobj
^C:\Users\משתמש\source\repos\Magshimim_EX31\Magshimim_EX31\Magshimim_EX31.vcxproj
C:\Users\משתמש\source\repos\Magshimim_EX31\Release\Magshimim_EX31.ipdb
C:\Users\משתמש\source\repos\Magshimim_EX31\Release\Magshimim_EX31.iobj
^C:\Users\משתמש\source\repos\Magshimim_EX31\Magshimim_EX31\Magshimim_EX31.vcxproj
C:\Users\משתמש\source\repos\Magshimim_EX31\Release\Magshimim_EX31.ipdb
C:\Users\משתמש\source\repos\Magshimim_EX31\Release\Magshimim_EX31.iobj
^C:\Users\משתמש\source\repos\Magshimim_EX31\Magshimim_EX31\Magshimim_EX31.vcxproj
C:\Users\משתמש\source\repos\Magshimim_EX31\Release\Magshimim_EX31.ipdb
C:\Users\משתמש\source\repos\Magshimim_EX31\Release\Magshimim_EX31.iobj
^C:\Users\משתמש\source\repos\Magshimim_EX31\Magshimim_EX31\Magshimim_EX31.vcxproj
C:\Users\משתמש\source\repos\Magshimim_EX31\Release\Magshimim_EX31.ipdb
C:\Users\משתמש\source\repos\Magshimim_EX31\Release\Magshimim_EX31.iobj
^C:\Users\משתמש\source\repos\Magshimim_EX31\Magshimim_EX31\Magshimim_EX31.vcxproj
C:\Users\משתמש\source\repos\Magshimim_EX31\Release\Magshimim_EX31.ipdb
C:\Users\משתמש\source\repos\Magshimim_EX31\Release\Magshimim_EX31.iobj
^C:\Users\משתמש\source\repos\Magshimim_EX31\Magshimim_EX31\Magshimim_EX31.vcxproj
C:\Users\משתמש\source\repos\Magshimim_EX31\Release\Magshimim_EX31.ipdb
C:\Users\משתמש\source\repos\Magshimim_EX31\Release\Magshimim_EX31.iobj
^C:\Users\משתמש\source\repos\Magshimim_EX31\Magshimim_EX31\Magshimim_EX31.vcxproj
C:\Users\משתמש\source\repos\Magshimim_EX31\Release\Magshimim_EX31.ipdb
C:\Users\משתמש\source\repos\Magshimim_EX31\Release\Magshimim_EX31.iobj
^C:\Users\משתמש\source\repos\Magshimim_EX31\Magshimim_EX31\Magshimim_EX31.vcxproj
C:\Users\משתמש\source\repos\Magshimim_EX31\Release\Magshimim_EX31.ipdb
C:\Users\משתמש\source\repos\Magshimim_EX31\Release\Magshimim_EX31.iobj
^C:\Users\משתמש\source\repos\Magshimim_EX31\Magshimim_EX31\Magshimim_EX31.vcxproj
C:\Users\משתמש\source\repos\Magshimim_EX31\Release\Magshimim_EX31.ipdb
C:\Users\משתמש\source\repos\Magshimim_EX31\Release\Magshimim_EX31.iobj
^C:\Users\משתמש\source\repos\Magshimim_EX31\Magshimim_EX31\Magshimim_EX31.vcxproj
C:\Users\משתמש\source\repos\Magshimim_EX31\Release\Magshimim_EX31.ipdb
C:\Users\משתמש\source\repos\Magshimim_EX31\Release\Magshimim_EX31.iobj
^C:\Users\משתמש\source\repos\Magshimim_EX31\Magshimim_EX31\Magshimim_EX31.vcxproj
C:\Users\משתמש\source\repos\Magshimim_EX31\Release\Magshimim_EX31.ipdb
C:\Users\משתמש\source\repos\Magshimim_EX31\Release\Magshimim_EX31.iobj
^C:\Users\משתמש\source\repos\Magshimim_EX31\Magshimim_EX31\Magshimim_EX31.vcxproj
C:\Users\משתמש\source\repos\Magshimim_EX31\Release\Magshimim_EX31.ipdb
C:\Users\משתמש\source\repos\Magshimim_EX31\Release\Magshimim_EX31.iobj
^C:\Users\משתמש\source\repos\Magshimim_EX31\Magshimim_EX31\Magshimim_EX31.vcxproj
C:\Users\משתמש\source\repos\Magshimim_EX31\Release\Magshimim_EX31.ipdb
C:\Users\משתמש\source\repos\Magshimim_EX31\Release\Magshimim_EX31.iobj
^C:\Users\משתמש\source\repos\Magshimim_EX31\Magshimim_EX31\Magshimim_EX31.vcxproj
C:\Users\משתמש\source\repos\Magshimim_EX31\Release\Magshimim_EX31.ipdb
C:\Users\משתמש\source\repos\Magshimim_EX31\Release\Magshimim_EX31.iobj
^C:\Users\משתמש\source\repos\Magshimim_EX31\Magshimim_EX31\Magshimim_EX31.vcxproj
C:\Users\משתמש\source\repos\Magshimim_EX31\Release\Magshimim_EX31.ipdb
C:\Users\משתמש\source\repos\Magshimim_EX31\Release\Magshimim_EX31.iobj
^C:\Users\משתמש\source\repos\Magshimim_EX31\Magshimim_EX31\Magshimim_EX31.vcxproj
C:\Users\משתמש\source\repos\Magshimim_EX31\Release\Magshimim_EX31.ipdb
C:\Users\משתמש\source\repos\Magshimim_EX31\Release\Magshimim_EX31.iobj
^C:\Users\משתמש\source\repos\Magshimim_EX31\Magshimim_EX31\Magshimim_EX31.vcxproj
C:\Users\משתמש\source\repos\Magshimim_EX31\Release\Magshimim_EX31.ipdb
C:\Users\משתמש\source\repos\Magshimim_EX31\Release\Magshimim_EX31.iobj
^C:\Users\משתמש\source\repos\Magshimim_EX31\Magshimim_EX31\Magshimim_EX31.vcxproj
C:\Users\משתמש\source\repos\Magshimim_EX31\Release\Magshimim_EX31.ipdb
C:\Users\משתמש\source\repos\Magshimim_EX31\Release\Magshimim_EX31.iobj
^C:\Users\משתמש\source\repos\Magshimim_EX31\Magshimim_EX31\Magshimim_EX31.vcxproj
C:\Users\משתמש\source\repos\Magshimim_EX31\Release\Magshimim_EX31.ipdb
C:\Users\משתמש\source\repos\Magshimim_EX31\Release\Magshimim_EX31.iobj
^C:\Users\משתמש\source\repos\Magshimim_EX31\Magshimim_EX31\Magshimim_EX31.vcxproj
C:\Users\משתמש\source\repos\Magshimim_EX31\Release\Magshimim_EX31.ipdb
C:\Users\משתמש\source\repos\Magshimim_EX31\Release\Magshimim_EX31.iobj
^C:\Users\משתמש\source\repos\Magshimim_EX31\Magshimim_EX31\Magshimim_EX31.vcxproj
C:\Users\משתמש\source\repos\Magshimim_EX31\Release\Magshimim_EX31.ipdb
C:\Users\משתמש\source\repos\Magshimim_EX31\Release\Magshimim_EX31.iobj
^C:\Users\משתמש\source\repos\Magshimim_EX31\Magshimim_EX31\Magshimim_EX31.vcxproj
C:\Users\משתמש\source\repos\Magshimim_EX31\Release\Magshimim_EX31.ipdb
C:\Users\משתמש\source\repos\Magshimim_EX31\Release\Magshimim_EX31.iobj
^C:\Users\משתמש\source\repos\Magshimim_EX31\Magshimim_EX31\Magshimim_EX31.vcxproj
C:\Users\משתמש\source\repos\Magshimim_EX31\Release\Magshimim_EX31.ipdb
C:\Users\משתמש\source\repos\Magshimim_EX31\Release\Magshimim_EX31.iobj
^C:\Users\משתמש\source\repos\Magshimim_EX31\Magshimim_EX31\Magshimim_EX31.vcxproj
C:\Users\משתמש\source\repos\Magshimim_EX31\Release\Magshimim_EX31.ipdb
C:\Users\משתמש\source\repos\Magshimim_EX31\Release\Magshimim_EX31.iobj
^C:\Users\משתמש\source\repos\Magshimim_EX31\Magshimim_EX31\Magshimim_EX31.vcxproj
C:\Users\משתמש\source\repos\Magshimim_EX31\Release\Magshimim_EX31.ipdb
C:\Users\משתמש\source\repos\Magshimim_EX31\Release\Magshimim_EX31.iobj
^C:\Users\משתמש\source\repos\Magshimim_EX31\Magshimim_EX31\Magshimim_EX31.vcxproj
C:\Users\משתמש\source\repos\Magshimim_EX31\Release\Magshimim_EX31.ipdb
C:\Users\משתמש\source\repos\Magshimim_EX31\Release\Magshimim_EX31.iobj
^C:\Users\משתמש\source\repos\Magshimim_EX31\Magshimim_EX31\Magshimim_EX31.vcxproj
C:\Users\משתמש\source\repos\Magshimim_EX31\Release\Magshimim_EX31.ipdb
C:\Users\משתמש\source\repos\Magshimim_EX31\Release\Magshimim_EX31.iobj
^C:\Users\משתמש\source\repos\Magshimim_EX31\Magshimim_EX31\Magshimim_EX31.vcxproj
C:\Users\משתמש\source\repos\Magshimim_EX31\Release\Magshimim_EX31.ipdb
C:\Users\משתמש\source\repos\Magshimim_EX31\Release\Magshimim_EX31.iobj
^C:\Users\משתמש\source\repos\Magshimim_EX31\Magshimim_EX31\Magshimim_EX31.vcxproj
C:\Users\משתמש\source\repos\Magshimim_EX31\Release\Magshimim_EX31.ipdb
C:\Users\משתמש\source\repos\Magshimim_EX31\Release\Magshimim_EX31.iobj
^C:\Users\משתמש\source\repos\Magshimim_EX31\Magshimim_EX31\Magshimim_EX31.vcxproj
C:\Users\משתמש\source\repos\Magshimim_EX31\Release\Magshimim_EX31.ipdb
C:\Users\משתמש\source\repos\Magshimim_EX31\Release\Magshimim_EX31.iobj
^C:\Users\משתמש\source\repos\Magshimim_EX31\Magshimim_EX31\Magshimim_EX31.vcxproj
C:\Users\משתמש\source\repos\Magshimim_EX31\Release\Magshimim_EX31.ipdb
C:\Users\משתמש\source\repos\Magshimim_EX31\Release\Magshimim_EX31.iobj
^C:\Users\משתמש\source\repos\Magshimim_EX31\Magshimim_EX31\Magshimim_EX31.vcxproj
C:\Users\משתמש\source\repos\Magshimim_EX31\Release\Magshimim_EX31.ipdb
C:\Users\משתמש\source\repos\Magshimim_EX31\Release\Magshimim_EX31.iobj
^C:\Users\משתמש\source\repos\Magshimim_EX31\Magshimim_EX31\Magshimim_EX31.vcxproj
C:\Users\משתמש\source\repos\Magshimim_EX31\Release\Magshimim_EX31.ipdb
C:\Users\משתמש\source\repos\Magshimim_EX31\Release\Magshimim_EX31.iobj
^C:\Users\משתמש\source\repos\Magshimim_EX31\Magshimim_EX31\Magshimim_EX31.vcxproj
C:\Users\משתמש\source\repos\Magshimim_EX31\Release\Magshimim_EX31.ipdb
C:\Users\משתמש\source\repos\Magshimim_EX31\Release\Magshimim_EX31.iobj
^C:\Users\משתמש\source\repos\Magshimim_EX31\Magshimim_EX31\Magshimim_EX31.vcxproj
C:\Users\משתמש\source\repos\Magshimim_EX31\Release\Magshimim_EX31.ipdb
C:\Users\משתמש\source\repos\Magshimim_EX31\Release\Magshimim_EX31.iobj
^C:\Users\משתמש\source\repos\Magshimim_EX31\Magshimim_EX31\Magshimim_EX31.vcxproj
C:\Users\משתמש\source\repos\Magshimim_EX31\Release\Magshimim_EX31.ipdb
C:\Users\משתמש\source\repos\Magshimim_EX31\Release\Magshimim_EX31.iobj
^C:\Users\משתמש\source\repos\Magshimim_EX31\Magshimim_EX31\Magshimim_EX31.vcxproj
C:\Users\משתמש\source\repos\Magshimim_EX31\Release\Magshimim_EX31.ipdb
C:\Users\משתמש\source\repos\Magshimim_EX31\Release\Magshimim_EX31.iobj
^C:\Users\משתמש\source\repos\Magshimim_EX31\Magshimim_EX31\Magshimim_EX31.vcxproj
C:\Users\משתמש\source\repos\Magshimim_EX31\Release\Magshimim_EX31.ipdb
C:\Users\משתמש\source\repos\Magshimim_EX31\Release\Magshimim_EX31.iobj
^C:\Users\משתמש\source\repos\Magshimim_EX31\Magshimim_EX31\Magshimim_EX31.vcxproj
C:\Users\משתמש\source\repos\Magshimim_EX31\Release\Magshimim_EX31.ipdb
C:\Users\משתמש\source\repos\Magshimim_EX31\Release\Magshimim_EX31.iobj
^C:\Users\משתמש\source\repos\Magshimim_EX31\Magshimim_EX31\Magshimim_EX31.vcxproj
C:\Users\משתמש\source\repos\Magshimim_EX31\Release\Magshimim_EX31.ipdb
C:\Users\משתמש\source\repos\Magshimim_EX31\Release\Magshimim_EX31.iobj
^C:\Users\משתמש\source\repos\Magshimim_EX31\Magshimim_EX31\Magshimim_EX31.vcxproj
C:\Users\משתמש\source\repos\Magshimim_EX31\Release\Magshimim_EX31.ipdb
C:\Users\משתמש\source\repos\Magshimim_EX31\Release\Magshimim_EX31.iobj
^C:\Users\משתמש\source\repos\Magshimim_EX31\Magshimim_EX31\Magshimim_EX31.vcxproj
C:\Users\משתמש\source\repos\Magshimim_EX31\Release\Magshimim_EX31.ipdb
C:\Users\משתמש\source\repos\Magshimim_EX31\Release\Magshimim_EX31.iobj
^C:\Users\משתמש\source\repos\Magshimim_EX31\Magshimim_EX31\Magshimim_EX31.vcxproj
C:\Users\משתמש\source\repos\Magshimim_EX31\Release\Magshimim_EX31.ipdb
C:\Users\משתמש\source\repos\Magshimim_EX31\Release\Magshimim_EX31.iobj
^C:\Users\משתמש\source\repos\Magshimim_EX31\Magshimim_EX31\Magshimim_EX31.vcxproj
C:\Users\משתמש\source\repos\Magshimim_EX31\Release\Magshimim_EX31.ipdb
C:\Users\משתמש\source\repos\Magshimim_EX31\Release\Magshimim_EX31.iobj
^C:\Users\משתמש\source\repos\Magshimim_EX31\Magshimim_EX31\Magshimim_EX31.vcxproj
C:\Users\משתמש\source\repos\Magshimim_EX31\Release\Magshimim_EX31.ipdb
C:\Users\משתמש\source\repos\Magshimim_EX31\Release\Magshimim_EX31.iobj
^C:\Users\משתמש\source\repos\Magshimim_EX31\Magshimim_EX31\Magshimim_EX31.vcxproj
C:\Users\משתמש\source\repos\Magshimim_EX31\Release\Magshimim_EX31.ipdb
C:\Users\משתמש\source\repos\Magshimim_EX31\Release\Magshimim_EX31.iobj
^C:\Users\משתמש\source\repos\Magshimim_EX31\Magshimim_EX31\Magshimim_EX31.vcxproj
C:\Users\משתמש\source\repos\Magshimim_EX31\Release\Magshimim_EX31.ipdb
C:\Users\משתמש\source\repos\Magshimim_EX31\Release\Magshimim_EX31.iobj
^C:\Users\משתמש\source\repos\Magshimim_EX31\Magshimim_EX31\Magshimim_EX31.vcxproj
C:\Users\משתמש\source\repos\Magshimim_EX31\Release\Magshimim_EX31.ipdb
C:\Users\משתמש\source\repos\Magshimim_EX31\Release\Magshimim_EX31.iobj
^C:\Users\משתמש\source\repos\Magshimim_EX31\Magshimim_EX31\Magshimim_EX31.vcxproj
C:\Users\משתמש\source\repos\Magshimim_EX31\Release\Magshimim_EX31.ipdb
C:\Users\משתמש\source\repos\Magshimim_EX31\Release\Magshimim_EX31.iobj
^C:\Users\משתמש\source\repos\Magshimim_EX31\Magshimim_EX31\Magshimim_EX31.vcxproj
C:\Users\משתמש\source\repos\Magshimim_EX31\Release\Magshimim_EX31.ipdb
C:\Users\משתמש\source\repos\Magshimim_EX31\Release\Magshimim_EX31.iobj
^C:\Users\משתמש\source\repos\Magshimim_EX31\Magshimim_EX31\Magshimim_EX31.vcxproj
C:\Users\משתמש\source\repos\Magshimim_EX31\Release\Magshimim_EX31.ipdb
C:\Users\משתמש\source\repos\Magshimim_EX31\Release\Magshimim_EX31.iobj
^C:\Users\משתמש\source\repos\Magshimim_EX31\Magshimim_EX31\Magshimim_EX31.vcxproj
C:\Users\משתמש\source\repos\Magshimim_EX31\Release\Magshimim_EX31.ipdb
C:\Users\משתמש\source\repos\Magshimim_EX31\Release\Magshimim_EX31.iobj
^C:\Users\משתמש\source\repos\Magshimim_EX31\Magshimim_EX31\Magshimim_EX31.vcxproj
C:\Users\משתמש\source\repos\Magshimim_EX31\Release\Magshimim_EX31.ipdb
C:\Users\משתמש\source\repos\Magshimim_EX31\Release\Magshimim_EX31.iobj
^C:\Users\משתמש\source\repos\Magshimim_EX31\Magshimim_EX31\Magshimim_EX31.vcxproj
C:\Users\משתמש\source\repos\Magshimim_EX31\Release\Magshimim_EX31.ipdb
C:\Users\משתמש\source\repos\Magshimim_EX31\Release\Magshimim_EX31.iobj
^C:\Users\משתמש\source\repos\Magshimim_EX31\Magshimim_EX31\Magshimim_EX31.vcxproj
C:\Users\משתמש\source\repos\Magshimim_EX31\Release\Magshimim_EX31.ipdb
C:\Users\משתמש\source\repos\Magshimim_EX31\Release\Magshimim_EX31.iobj
^C:\Users\משתמש\source\repos\Magshimim_EX31\Magshimim_EX31\Magshimim_EX31.vcxproj
C:\Users\משתמש\source\repos\Magshimim_EX31\Release\Magshimim_EX31.ipdb
C:\Users\משתמש\source\repos\Magshimim_EX31\Release\Magshimim_EX31.iobj
^C:\Users\משתמש\source\repos\Magshimim_EX31\Magshimim_EX31\Magshimim_EX31.vcxproj
C:\Users\משתמש\source\repos\Magshimim_EX31\Release\Magshimim_EX31.ipdb
C:\Users\משתמש\source\repos\Magshimim_EX31\Release\Magshimim_EX31.iobj
^C:\Users\משתמש\source\repos\Magshimim_EX31\Magshimim_EX31\Magshimim_EX31.vcxproj
C:\Users\משתמש\source\repos\Magshimim_EX31\Release\Magshimim_EX31.ipdb
C:\Users\משתמש\source\repos\Magshimim_EX31\Release\Magshimim_EX31.iobj
^C:\Users\משתמש\source\repos\Magshimim_EX31\Magshimim_EX31\Magshimim_EX31.vcxproj
C:\Users\משתמש\source\repos\Magshimim_EX31\Release\Magshimim_EX31.ipdb
C:\Users\משתמש\source\repos\Magshimim_EX31\Release\Magshimim_EX31.iobj
^C:\Users\משתמש\source\repos\Magshimim_EX31\Magshimim_EX31\Magshimim_EX31.vcxproj
C:\Users\משתמש\source\repos\Magshimim_EX31\Release\Magshimim_EX31.ipdb
C:\Users\משתמש\source\repos\Magshimim_EX31\Release\Magshimim_EX31.iobj
^C:\Users\משתמש\source\repos\Magshimim_EX31\Magshimim_EX31\Magshimim_EX31.vcxproj
C:\Users\משתמש\source\repos\Magshimim_EX31\Release\Magshimim_EX31.ipdb
C:\Users\משתמש\source\repos\Magshimim_EX31\Release\Magshimim_EX31.iobj
^C:\Users\משתמש\source\repos\Magshimim_EX31\Magshimim_EX31\Magshimim_EX31.vcxproj
C:\Users\משתמש\source\repos\Magshimim_EX31\Release\Magshimim_EX31.ipdb
C:\Users\משתמש\source\repos\Magshimim_EX31\Release\Magshimim_EX31.iobj
^C:\Users\משתמש\source\repos\Magshimim_EX31\Magshimim_EX31\Magshimim_EX31.vcxproj
C:\Users\משתמש\source\repos\Magshimim_EX31\Release\Magshimim_EX31.ipdb
C:\Users\משתמש\source\repos\Magshimim_EX31\Release\Magshimim_EX31.iobj
^C:\Users\משתמש\source\repos\Magshimim_EX31\Magshimim_EX31\Magshimim_EX31.vcxproj
C:\Users\משתמש\source\repos\Magshimim_EX31\Release\Magshimim_EX31.ipdb
C:\Users\משתמש\source\repos\Magshimim_EX31\Release\Magshimim_EX31.iobj
^C:\Users\משתמש\source\repos\Magshimim_EX31\Magshimim_EX31\Magshimim_EX31.vcxproj
C:\Users\משתמש\source\repos\Magshimim_EX31\Release\Magshimim_EX31.ipdb
C:\Users\משתמש\source\repos\Magshimim_EX31\Release\Magshimim_EX31.iobj
^C:\Users\משתמש\source\repos\Magshimim_EX31\Magshimim_EX31\Magshimim_EX31.vcxproj
C:\Users\משתמש\source\repos\Magshimim_EX31\Release\Magshimim_EX31.ipdb
C:\Users\משתמש\source\repos\Magshimim_EX31\Release\Magshimim_EX31.iobj
^C:\Users\משתמש\source\repos\Magshimim_EX31\Magshimim_EX31\Magshimim_EX31.vcxproj
C:\Users\משתמש\source\repos\Magshimim_EX31\Release\Magshimim_EX31.ipdb
C:\Users\משתמש\source\repos\Magshimim_EX31\Release\Magshimim_EX31.iobj
^C:\Users\משתמש\source\repos\Magshimim_EX31\Magshimim_EX31\Magshimim_EX31.vcxproj
C:\Users\משתמש\source\repos\Magshimim_EX31\Release\Magshimim_EX31.ipdb
C:\Users\משתמש\source\repos\Magshimim_EX31\Release\Magshimim_EX31.iobj
^C:\Users\משתמש\source\repos\Magshimim_EX31\Magshimim_EX31\Magshimim_EX31.vcxproj
C:\Users\משתמש\source\repos\Magshimim_EX31\Release\Magshimim_EX31.ipdb
C:\Users\משתמש\source\repos\Magshimim_EX31\Release\Magshimim_EX31.iobj
^C:\Users\משתמש\source\repos\Magshimim_EX31\Magshimim_EX31\Magshimim_EX31.vcxproj
C:\Users\משתמש\source\repos\Magshimim_EX31\Release\Magshimim_EX31.ipdb
C:\Users\משתמש\source\repos\Magshimim_EX31\Release\Magshimim_EX31.iobj
^C:\Users\משתמש\source\repos\Magshimim_EX31\Magshimim_EX31\Magshimim_EX31.vcxproj
C:\Users\משתמש\source\repos\Magshimim_EX31\Release\Magshimim_EX31.ipdb
C:\Users\משתמש\source\repos\Magshimim_EX31\Release\Magshimim_EX31.iobj
^C:\Users\משתמש\source\repos\Magshimim_EX31\Magshimim_EX31\Magshimim_EX31.vcxproj
C:\Users\משתמש\source\repos\Magshimim_EX31\Release\Magshimim_EX31.ipdb
C:\Users\משתמש\source\repos\Magshimim_EX31\Release\Magshimim_EX31.iobj
^C:\Users\משתמש\source\repos\Magshimim_EX31\Magshimim_EX31\Magshimim_EX31.vcxproj
C:\Users\משתמש\source\repos\Magshimim_EX31\Release\Magshimim_EX31.ipdb
C:\Users\משתמש\source\repos\Magshimim_EX31\Release\Magshimim_EX31.iobj
^C:\Users\משתמש\source\repos\Magshimim_EX31\Magshimim_EX31\Magshimim_EX31.vcxproj
C:\Users\משתמש\source\repos\Magshimim_EX31\Release\Magshimim_EX31.ipdb
C:\Users\משתמש\source\repos\Magshimim_EX31\Release\Magshimim_EX31.iobj
^C:\Users\משתמש\source\repos\Magshimim_EX31\Magshimim_EX31\Magshimim_EX31.vcxproj
C:\Users\משתמש\source\repos\Magshimim_EX31\Release\Magshimim_EX31.ipdb
C:\Users\משתמש\source\repos\Magshimim_EX31\Release\Magshimim_EX31.iobj
^C:\Users\משתמש\source\repos\Magshimim_EX31\Magshimim_EX31\Magshimim_EX31.vcxproj
C:\Users\משתמש\source\repos\Magshimim_EX31\Release\Magshimim_EX31.ipdb
C:\Users\משתמש\source\repos\Magshimim_EX31\Release\Magshimim_EX31.iobj
^C:\Users\משתמש\source\repos\Magshimim_finalProjectOfek\Magshimim_EX31\Magshimim_EX31.vcxproj
C:\Users\משתמש\source\repos\Magshimim_finalProjectOfek\Release\Magshimim_EX31.ipdb
C:\Users\משתמש\source\repos\Magshimim_finalProjectOfek\Release\Magshimim_EX31.iobj
